{
  "tasks": [
    {
      "title": "Call Jill",
      "added": "2017-03-13T09:46:46.127Z",
      "_id": 1
    },
    {
      "title": "Write to John",
      "added": "2017-03-13T10:09:38.867Z",
      "_id": 4
    },
    {
      "title": "kalle",
      "added": "2017-04-20T10:26:01.718Z",
      "_id": 5
    },
    {
      "title": "kalle",
      "added": "2017-04-20T10:26:03.553Z",
      "_id": 6
    },
    {
      "title": "autoremont",
      "added": "2017-04-20T10:30:30.873Z",
      "_id": 7
    }
  ]
}